{
    "schema_allUsers": {
        "type": "array",
        "items": {
            "type": "object",
            "required": ["id", "avatar", "email", "userName"],
            "properties": {
                "id": {
                    "type": "integer"
                },
                "avatar": {
                    "type": "string"
                },
                "email": {
                    "type": "string"
                },
                "userName": {
                    "type": "string"
                }
            }
        }
    },
   
    "schema_register": {
        "type": "object",
        "required": ["id", "avatar", "email", "userName", "password"],
        "properties": {
            "id": {
                "type": "integer"
            },
            "avatar": {
                "type": "string"
            },
            "email": {
                "type": "string"
            },
            "userName": {
                "type": "string"
            },
            "password": {
                "type": "string"
            }
        }
    },

    "schema_userByToken": {
        "type": "object",
        "required": ["id", "avatar", "email", "userName", "password"],
        "properties": {
            "id": {
                "type": "integer"
            },
            "avatar": {
                "type": "string"
            },
            "email": {
                "type": "string"
            },
            "userName": {
                "type": "string"
            },
            "password": {
                "type": "string"
            }
        }
    },

    "schema_getAllPosts": {
        
            "type": "array",
            "items": {
                "type": "object",
                "required": [
                    "id",
                    "createdAt",
                    "author",
                    "previewImage",
                    "body",
                    "comments",
                    "reactions"
                ],
                "properties": {
                    "id": {
                        "type": "integer"
                    },
                    "createdAt": {
                        "type": "string"
                    },
                    "author": {
                        "type": "object",
                        "required": [
                            "id",
                            "avatar",
                            "email",
                            "userName"
                        ],
                        "properties": {
                            "id": {
                                "type": "integer"
                            },
                            "avatar": {
                                "type": "string"
                            },
                            "email": {
                                "type": "string"
                            },
                            "userName": {
                                "type": "string"
                            }
                        }
                    },
                    "previewImage": {
                        "type": "string"
                    },
                    "body": {
                        "type": "string"
                    },
                    "comments": {
                        "type": "array",
                        "items": {
                            "type": "object",
                            "required": [
                                "id",
                                "createdAt",
                                "author",
                                "body",
                                "reactions"
                            ],
                            "properties": {
                                "id": {
                                    "type": "integer"
                                },
                                "createdAt": {
                                    "type": "string"
                                },
                                "author": {
                                    "type": "object",
                                    "required": [
                                        "id",
                                        "avatar",
                                        "email",
                                        "userName"
                                    ],
                                    "properties": {
                                        "id": {
                                            "type": "integer"
                                        },
                                        "avatar": {
                                            "type": "string"
                                        },
                                        "email": {
                                            "type": "string"
                                        },
                                        "userName": {
                                            "type": "string"
                                        }
                                    }
                                },
                                "body": {
                                    "type": "string"
                                },
                                "reactions": {
                                    "type": "array",
                                    "items": {
                                        "type": "object",
                                        "required": [
                                            "isLike",
                                            "user"
                                        ],
                                        "properties": {
                                            "isLike": {
                                                "type": "boolean"
                                            },
                                            "user": {
                                                "type": "object",
                                                "required": [
                                                    "id",
                                                    "avatar",
                                                    "email",
                                                    "userName"
                                                ],
                                                "properties": {
                                                    "id": {
                                                        "type": "integer"
                                                    },
                                                    "avatar": {
                                                        "type": "string"
                                                    },
                                                    "email": {
                                                        "type": "string"
                                                    },
                                                    "userName": {
                                                        "type": "string"
                                                    }
                                                }
                                            }
                                        }
                                    }
                                }
                            }
                        }
                    },
                    "reactions": {
                        "type": "array",
                        "items": {
                            "type": "object",
                            "required": [
                                "isLike",
                                "user"
                            ],
                            "properties": {
                                "isLike": {
                                    "type": "boolean"
                                },
                                "user": {
                                    "type": "object",
                                    "required": [
                                        "id",
                                        "avatar",
                                        "email",
                                        "userName"
                                    ],
                                    "properties": {
                                        "id": {
                                            "type": "integer"
                                        },
                                        "avatar": {
                                            "type": "string"
                                        },
                                        "email": {
                                            "type": "string"
                                        },
                                        "userName": {
                                            "type": "string"
                                        }
                                    }
                                }
                            }
                        }
                    }
                }
            }
        

    }
}


